^C:\Users\kuku\Documents\Visual Studio 2010\Projects\proxy_function\ProxyFunction_UserUrl\ProxyFunction_UserUrl\ProxyFunction_UserUrl.vcxproj
C:\Users\kuku\Documents\Visual Studio 2010\Projects\proxy_function\ProxyFunction_UserUrl\Debug\ProxyFunction_UserUrl.lib
C:\Users\kuku\Documents\Visual Studio 2010\Projects\proxy_function\ProxyFunction_UserUrl\Debug\ProxyFunction_UserUrl.lib
C:\Users\kuku\Documents\Visual Studio 2010\Projects\proxy_function\ProxyFunction_UserUrl\Debug\ProxyFunction_UserUrl.exp
C:\Users\kuku\Documents\Visual Studio 2010\Projects\proxy_function\ProxyFunction_UserUrl\Debug\ProxyFunction_UserUrl.exp
