^C:\USERS\KUKU\DOCUMENTS\VISUAL STUDIO 2010\PROJECTS\PROXY_FUNCTION\PROXYFUNCTION_GOOGLES\PROXYFUNCTION_GOOGLES\PROXYFUNCTION_GOOGLES.CPP
C:\PROGRAM FILES (X86)\MICROSOFT VISUAL STUDIO 11.0\VC\BIN\2052\CLUI.DLL
C:\WINDOWS\GLOBALIZATION\SORTING\SORTDEFAULT.NLS
C:\WINDOWS\SYSTEM32\RSAENH.DLL
C:\PROGRAM FILES (X86)\MICROSOFT VISUAL STUDIO 11.0\COMMON7\IDE\MSPDBSRV.EXE
C:\WINDOWS\SYSTEM32\TZRES.DLL
C:\PROGRAM FILES (X86)\MICROSOFT VISUAL STUDIO 11.0\VC\INCLUDE\STDIO.H
C:\PROGRAM FILES (X86)\MICROSOFT VISUAL STUDIO 11.0\VC\INCLUDE\CRTDEFS.H
C:\PROGRAM FILES (X86)\MICROSOFT VISUAL STUDIO 11.0\VC\INCLUDE\SAL.H
C:\PROGRAM FILES (X86)\MICROSOFT VISUAL STUDIO 11.0\VC\INCLUDE\CONCURRENCYSAL.H
C:\PROGRAM FILES (X86)\MICROSOFT VISUAL STUDIO 11.0\VC\INCLUDE\VADEFS.H
C:\PROGRAM FILES (X86)\MICROSOFT VISUAL STUDIO 11.0\VC\INCLUDE\SWPRINTF.INL
C:\PROJECT\CUSTOM_LIBRARIES\INCLUDE\CURL\CURL.H
C:\PROJECT\CUSTOM_LIBRARIES\INCLUDE\CURL\CURLVER.H
C:\PROJECT\CUSTOM_LIBRARIES\INCLUDE\CURL\CURLBUILD.H
C:\PROJECT\CUSTOM_LIBRARIES\INCLUDE\CURL\CURLRULES.H
C:\PROGRAM FILES (X86)\MICROSOFT VISUAL STUDIO 11.0\VC\INCLUDE\LIMITS.H
C:\PROGRAM FILES (X86)\MICROSOFT VISUAL STUDIO 11.0\VC\INCLUDE\SYS\TYPES.H
C:\PROGRAM FILES (X86)\MICROSOFT VISUAL STUDIO 11.0\VC\INCLUDE\TIME.H
C:\PROGRAM FILES (X86)\MICROSOFT VISUAL STUDIO 11.0\VC\INCLUDE\WTIME.INL
C:\PROGRAM FILES (X86)\MICROSOFT VISUAL STUDIO 11.0\VC\INCLUDE\TIME.INL
C:\PROGRAM FILES (X86)\WINDOWS KITS\8.0\INCLUDE\UM\WINSOCK2.H
C:\PROGRAM FILES (X86)\WINDOWS KITS\8.0\INCLUDE\SHARED\WINAPIFAMILY.H
C:\PROGRAM FILES (X86)\WINDOWS KITS\8.0\INCLUDE\UM\WINDOWS.H
C:\PROGRAM FILES (X86)\WINDOWS KITS\8.0\INCLUDE\SHARED\SDKDDKVER.H
C:\PROGRAM FILES (X86)\MICROSOFT VISUAL STUDIO 11.0\VC\INCLUDE\EXCPT.H
C:\PROGRAM FILES (X86)\MICROSOFT VISUAL STUDIO 11.0\VC\INCLUDE\STDARG.H
C:\PROGRAM FILES (X86)\WINDOWS KITS\8.0\INCLUDE\SHARED\WINDEF.H
C:\PROGRAM FILES (X86)\WINDOWS KITS\8.0\INCLUDE\SHARED\MINWINDEF.H
C:\PROGRAM FILES (X86)\WINDOWS KITS\8.0\INCLUDE\SHARED\SPECSTRINGS.H
C:\PROGRAM FILES (X86)\WINDOWS KITS\8.0\INCLUDE\SHARED\SPECSTRINGS_STRICT.H
C:\PROGRAM FILES (X86)\WINDOWS KITS\8.0\INCLUDE\SHARED\SPECSTRINGS_UNDEF.H
C:\PROGRAM FILES (X86)\WINDOWS KITS\8.0\INCLUDE\SHARED\DRIVERSPECS.H
C:\PROGRAM FILES (X86)\WINDOWS KITS\8.0\INCLUDE\SHARED\SDV_DRIVERSPECS.H
C:\PROGRAM FILES (X86)\WINDOWS KITS\8.0\INCLUDE\UM\WINNT.H
C:\PROGRAM FILES (X86)\MICROSOFT VISUAL STUDIO 11.0\VC\INCLUDE\CTYPE.H
C:\PROGRAM FILES (X86)\WINDOWS KITS\8.0\INCLUDE\SHARED\KERNELSPECS.H
C:\PROGRAM FILES (X86)\WINDOWS KITS\8.0\INCLUDE\SHARED\BASETSD.H
C:\PROGRAM FILES (X86)\WINDOWS KITS\8.0\INCLUDE\SHARED\GUIDDEF.H
C:\PROGRAM FILES (X86)\MICROSOFT VISUAL STUDIO 11.0\VC\INCLUDE\STRING.H
C:\PROGRAM FILES (X86)\WINDOWS KITS\8.0\INCLUDE\SHARED\PSHPACK4.H
C:\PROGRAM FILES (X86)\WINDOWS KITS\8.0\INCLUDE\SHARED\POPPACK.H
C:\PROGRAM FILES (X86)\WINDOWS KITS\8.0\INCLUDE\SHARED\PSHPACK2.H
C:\PROGRAM FILES (X86)\WINDOWS KITS\8.0\INCLUDE\SHARED\PSHPACK8.H
C:\PROGRAM FILES (X86)\WINDOWS KITS\8.0\INCLUDE\SHARED\APISET.H
C:\PROGRAM FILES (X86)\WINDOWS KITS\8.0\INCLUDE\SHARED\KTMTYPES.H
C:\PROGRAM FILES (X86)\WINDOWS KITS\8.0\INCLUDE\UM\WINBASE.H
C:\PROGRAM FILES (X86)\WINDOWS KITS\8.0\INCLUDE\SHARED\APISETCCONV.H
C:\PROGRAM FILES (X86)\WINDOWS KITS\8.0\INCLUDE\UM\MINWINBASE.H
C:\PROGRAM FILES (X86)\WINDOWS KITS\8.0\INCLUDE\UM\PROCESSENV.H
C:\PROGRAM FILES (X86)\WINDOWS KITS\8.0\INCLUDE\UM\FILEAPI.H
C:\PROGRAM FILES (X86)\WINDOWS KITS\8.0\INCLUDE\UM\DEBUGAPI.H
C:\PROGRAM FILES (X86)\WINDOWS KITS\8.0\INCLUDE\UM\UTILAPISET.H
C:\PROGRAM FILES (X86)\WINDOWS KITS\8.0\INCLUDE\UM\HANDLEAPI.H
C:\PROGRAM FILES (X86)\WINDOWS KITS\8.0\INCLUDE\UM\ERRHANDLINGAPI.H
C:\PROGRAM FILES (X86)\WINDOWS KITS\8.0\INCLUDE\UM\FIBERSAPI.H
C:\PROGRAM FILES (X86)\WINDOWS KITS\8.0\INCLUDE\UM\NAMEDPIPEAPI.H
C:\PROGRAM FILES (X86)\WINDOWS KITS\8.0\INCLUDE\UM\PROFILEAPI.H
C:\PROGRAM FILES (X86)\WINDOWS KITS\8.0\INCLUDE\UM\HEAPAPI.H
C:\PROGRAM FILES (X86)\WINDOWS KITS\8.0\INCLUDE\UM\IOAPISET.H
C:\PROGRAM FILES (X86)\WINDOWS KITS\8.0\INCLUDE\UM\SYNCHAPI.H
C:\PROGRAM FILES (X86)\WINDOWS KITS\8.0\INCLUDE\UM\INTERLOCKEDAPI.H
C:\PROGRAM FILES (X86)\WINDOWS KITS\8.0\INCLUDE\UM\PROCESSTHREADSAPI.H
C:\PROGRAM FILES (X86)\WINDOWS KITS\8.0\INCLUDE\UM\SYSINFOAPI.H
C:\PROGRAM FILES (X86)\WINDOWS KITS\8.0\INCLUDE\UM\MEMORYAPI.H
C:\PROGRAM FILES (X86)\WINDOWS KITS\8.0\INCLUDE\UM\THREADPOOLLEGACYAPISET.H
C:\PROGRAM FILES (X86)\WINDOWS KITS\8.0\INCLUDE\UM\THREADPOOLAPISET.H
C:\PROGRAM FILES (X86)\WINDOWS KITS\8.0\INCLUDE\UM\BEMAPISET.H
C:\PROGRAM FILES (X86)\WINDOWS KITS\8.0\INCLUDE\UM\JOBAPI.H
C:\PROGRAM FILES (X86)\WINDOWS KITS\8.0\INCLUDE\UM\WOW64APISET.H
C:\PROGRAM FILES (X86)\WINDOWS KITS\8.0\INCLUDE\UM\LIBLOADERAPI.H
C:\PROGRAM FILES (X86)\WINDOWS KITS\8.0\INCLUDE\UM\SECURITYBASEAPI.H
C:\PROGRAM FILES (X86)\WINDOWS KITS\8.0\INCLUDE\UM\NAMESPACEAPI.H
C:\PROGRAM FILES (X86)\WINDOWS KITS\8.0\INCLUDE\UM\SYSTEMTOPOLOGYAPI.H
C:\PROGRAM FILES (X86)\WINDOWS KITS\8.0\INCLUDE\UM\PROCESSTOPOLOGYAPI.H
C:\PROGRAM FILES (X86)\WINDOWS KITS\8.0\INCLUDE\UM\SECURITYAPPCONTAINER.H
C:\PROGRAM FILES (X86)\WINDOWS KITS\8.0\INCLUDE\UM\REALTIMEAPISET.H
C:\PROGRAM FILES (X86)\WINDOWS KITS\8.0\INCLUDE\SHARED\WINERROR.H
C:\PROGRAM FILES (X86)\WINDOWS KITS\8.0\INCLUDE\UM\TIMEZONEAPI.H
C:\PROGRAM FILES (X86)\WINDOWS KITS\8.0\INCLUDE\UM\WINGDI.H
C:\PROGRAM FILES (X86)\WINDOWS KITS\8.0\INCLUDE\SHARED\PSHPACK1.H
C:\PROGRAM FILES (X86)\WINDOWS KITS\8.0\INCLUDE\UM\WINUSER.H
C:\PROGRAM FILES (X86)\WINDOWS KITS\8.0\INCLUDE\SHARED\TVOUT.H
C:\PROGRAM FILES (X86)\WINDOWS KITS\8.0\INCLUDE\UM\WINNLS.H
C:\PROGRAM FILES (X86)\WINDOWS KITS\8.0\INCLUDE\UM\DATETIMEAPI.H
C:\PROGRAM FILES (X86)\WINDOWS KITS\8.0\INCLUDE\UM\STRINGAPISET.H
C:\PROGRAM FILES (X86)\WINDOWS KITS\8.0\INCLUDE\UM\WINCON.H
C:\PROGRAM FILES (X86)\WINDOWS KITS\8.0\INCLUDE\UM\CONSOLEAPI.H
C:\PROGRAM FILES (X86)\WINDOWS KITS\8.0\INCLUDE\UM\WINVER.H
C:\PROGRAM FILES (X86)\WINDOWS KITS\8.0\INCLUDE\UM\VERRSRC.H
C:\PROGRAM FILES (X86)\WINDOWS KITS\8.0\INCLUDE\UM\WINREG.H
C:\PROGRAM FILES (X86)\WINDOWS KITS\8.0\INCLUDE\UM\REASON.H
C:\PROGRAM FILES (X86)\WINDOWS KITS\8.0\INCLUDE\UM\WINNETWK.H
C:\PROGRAM FILES (X86)\WINDOWS KITS\8.0\INCLUDE\SHARED\WNNC.H
C:\PROGRAM FILES (X86)\WINDOWS KITS\8.0\INCLUDE\SHARED\CDERR.H
C:\PROGRAM FILES (X86)\WINDOWS KITS\8.0\INCLUDE\UM\DDE.H
C:\PROGRAM FILES (X86)\WINDOWS KITS\8.0\INCLUDE\UM\DDEML.H
C:\PROGRAM FILES (X86)\WINDOWS KITS\8.0\INCLUDE\UM\DLGS.H
C:\PROGRAM FILES (X86)\WINDOWS KITS\8.0\INCLUDE\UM\LZEXPAND.H
C:\PROGRAM FILES (X86)\WINDOWS KITS\8.0\INCLUDE\UM\MMSYSTEM.H
C:\PROGRAM FILES (X86)\WINDOWS KITS\8.0\INCLUDE\UM\MMSYSCOM.H
C:\PROGRAM FILES (X86)\WINDOWS KITS\8.0\INCLUDE\UM\MCIAPI.H
C:\PROGRAM FILES (X86)\WINDOWS KITS\8.0\INCLUDE\UM\MMISCAPI.H
C:\PROGRAM FILES (X86)\WINDOWS KITS\8.0\INCLUDE\UM\MMISCAPI2.H
C:\PROGRAM FILES (X86)\WINDOWS KITS\8.0\INCLUDE\UM\PLAYSOUNDAPI.H
C:\PROGRAM FILES (X86)\WINDOWS KITS\8.0\INCLUDE\UM\MMEAPI.H
C:\PROGRAM FILES (X86)\WINDOWS KITS\8.0\INCLUDE\UM\TIMEAPI.H
C:\PROGRAM FILES (X86)\WINDOWS KITS\8.0\INCLUDE\UM\JOYSTICKAPI.H
C:\PROGRAM FILES (X86)\WINDOWS KITS\8.0\INCLUDE\UM\NB30.H
C:\PROGRAM FILES (X86)\WINDOWS KITS\8.0\INCLUDE\SHARED\RPC.H
C:\PROGRAM FILES (X86)\WINDOWS KITS\8.0\INCLUDE\SHARED\RPCDCE.H
C:\PROGRAM FILES (X86)\WINDOWS KITS\8.0\INCLUDE\SHARED\RPCDCEP.H
C:\PROGRAM FILES (X86)\WINDOWS KITS\8.0\INCLUDE\UM\RPCNSI.H
C:\PROGRAM FILES (X86)\WINDOWS KITS\8.0\INCLUDE\SHARED\RPCNTERR.H
C:\PROGRAM FILES (X86)\WINDOWS KITS\8.0\INCLUDE\SHARED\RPCASYNC.H
C:\PROGRAM FILES (X86)\WINDOWS KITS\8.0\INCLUDE\UM\SHELLAPI.H
C:\PROGRAM FILES (X86)\WINDOWS KITS\8.0\INCLUDE\UM\WINPERF.H
C:\PROGRAM FILES (X86)\WINDOWS KITS\8.0\INCLUDE\UM\WINSOCK.H
C:\PROGRAM FILES (X86)\WINDOWS KITS\8.0\INCLUDE\UM\WINCRYPT.H
C:\PROGRAM FILES (X86)\WINDOWS KITS\8.0\INCLUDE\SHARED\BCRYPT.H
C:\PROGRAM FILES (X86)\WINDOWS KITS\8.0\INCLUDE\UM\NCRYPT.H
C:\PROGRAM FILES (X86)\WINDOWS KITS\8.0\INCLUDE\UM\DPAPI.H
C:\PROGRAM FILES (X86)\WINDOWS KITS\8.0\INCLUDE\UM\WINEFS.H
C:\PROGRAM FILES (X86)\WINDOWS KITS\8.0\INCLUDE\UM\WINSCARD.H
C:\PROGRAM FILES (X86)\WINDOWS KITS\8.0\INCLUDE\SHARED\WTYPES.H
C:\PROGRAM FILES (X86)\WINDOWS KITS\8.0\INCLUDE\SHARED\RPCNDR.H
C:\PROGRAM FILES (X86)\WINDOWS KITS\8.0\INCLUDE\UM\RPCNSIP.H
C:\PROGRAM FILES (X86)\WINDOWS KITS\8.0\INCLUDE\SHARED\RPCSAL.H
C:\PROGRAM FILES (X86)\WINDOWS KITS\8.0\INCLUDE\SHARED\WTYPESBASE.H
C:\PROGRAM FILES (X86)\WINDOWS KITS\8.0\INCLUDE\UM\WINIOCTL.H
C:\PROGRAM FILES (X86)\WINDOWS KITS\8.0\INCLUDE\SHARED\WINSMCRD.H
C:\PROGRAM FILES (X86)\WINDOWS KITS\8.0\INCLUDE\UM\WINSPOOL.H
C:\PROGRAM FILES (X86)\WINDOWS KITS\8.0\INCLUDE\UM\PRSHT.H
C:\PROGRAM FILES (X86)\WINDOWS KITS\8.0\INCLUDE\UM\OLE2.H
C:\PROGRAM FILES (X86)\WINDOWS KITS\8.0\INCLUDE\UM\OBJBASE.H
C:\PROGRAM FILES (X86)\WINDOWS KITS\8.0\INCLUDE\UM\COMBASEAPI.H
C:\PROGRAM FILES (X86)\MICROSOFT VISUAL STUDIO 11.0\VC\INCLUDE\STDLIB.H
C:\PROGRAM FILES (X86)\WINDOWS KITS\8.0\INCLUDE\UM\UNKNWNBASE.H
C:\PROGRAM FILES (X86)\WINDOWS KITS\8.0\INCLUDE\UM\OBJIDLBASE.H
C:\PROGRAM FILES (X86)\WINDOWS KITS\8.0\INCLUDE\UM\CGUID.H
C:\PROGRAM FILES (X86)\WINDOWS KITS\8.0\INCLUDE\UM\OBJIDL.H
C:\PROGRAM FILES (X86)\WINDOWS KITS\8.0\INCLUDE\UM\UNKNWN.H
C:\PROGRAM FILES (X86)\WINDOWS KITS\8.0\INCLUDE\UM\URLMON.H
C:\PROGRAM FILES (X86)\WINDOWS KITS\8.0\INCLUDE\UM\OLEIDL.H
C:\PROGRAM FILES (X86)\WINDOWS KITS\8.0\INCLUDE\UM\SERVPROV.H
C:\PROGRAM FILES (X86)\WINDOWS KITS\8.0\INCLUDE\UM\MSXML.H
C:\PROGRAM FILES (X86)\WINDOWS KITS\8.0\INCLUDE\UM\OAIDL.H
C:\PROGRAM FILES (X86)\WINDOWS KITS\8.0\INCLUDE\UM\PROPIDL.H
C:\PROGRAM FILES (X86)\WINDOWS KITS\8.0\INCLUDE\UM\OLEAUTO.H
C:\PROGRAM FILES (X86)\WINDOWS KITS\8.0\INCLUDE\UM\COMMDLG.H
C:\PROGRAM FILES (X86)\WINDOWS KITS\8.0\INCLUDE\SHARED\STRALIGN.H
C:\PROGRAM FILES (X86)\WINDOWS KITS\8.0\INCLUDE\UM\WINSVC.H
C:\PROGRAM FILES (X86)\WINDOWS KITS\8.0\INCLUDE\UM\MCX.H
C:\PROGRAM FILES (X86)\WINDOWS KITS\8.0\INCLUDE\UM\IMM.H
C:\PROGRAM FILES (X86)\WINDOWS KITS\8.0\INCLUDE\UM\IME_CMODES.H
C:\PROGRAM FILES (X86)\WINDOWS KITS\8.0\INCLUDE\SHARED\WS2DEF.H
C:\PROGRAM FILES (X86)\WINDOWS KITS\8.0\INCLUDE\SHARED\INADDR.H
C:\PROGRAM FILES (X86)\WINDOWS KITS\8.0\INCLUDE\SHARED\QOS.H
C:\PROGRAM FILES (X86)\WINDOWS KITS\8.0\INCLUDE\UM\WS2TCPIP.H
C:\PROGRAM FILES (X86)\WINDOWS KITS\8.0\INCLUDE\SHARED\WS2IPDEF.H
C:\PROGRAM FILES (X86)\WINDOWS KITS\8.0\INCLUDE\SHARED\IN6ADDR.H
C:\PROJECT\CUSTOM_LIBRARIES\INCLUDE\CURL\EASY.H
C:\PROJECT\CUSTOM_LIBRARIES\INCLUDE\CURL\MULTI.H
C:\PROGRAM FILES (X86)\MICROSOFT VISUAL STUDIO 11.0\VC\INCLUDE\IO.H
C:\PROGRAM FILES (X86)\MICROSOFT VISUAL STUDIO 11.0\VC\INCLUDE\STRING
C:\PROGRAM FILES (X86)\MICROSOFT VISUAL STUDIO 11.0\VC\INCLUDE\ITERATOR
C:\PROGRAM FILES (X86)\MICROSOFT VISUAL STUDIO 11.0\VC\INCLUDE\ISTREAM
C:\PROGRAM FILES (X86)\MICROSOFT VISUAL STUDIO 11.0\VC\INCLUDE\OSTREAM
C:\PROGRAM FILES (X86)\MICROSOFT VISUAL STUDIO 11.0\VC\INCLUDE\IOS
C:\PROGRAM FILES (X86)\MICROSOFT VISUAL STUDIO 11.0\VC\INCLUDE\XLOCNUM
C:\PROGRAM FILES (X86)\MICROSOFT VISUAL STUDIO 11.0\VC\INCLUDE\CLIMITS
C:\PROGRAM FILES (X86)\MICROSOFT VISUAL STUDIO 11.0\VC\INCLUDE\YVALS.H
C:\PROGRAM FILES (X86)\MICROSOFT VISUAL STUDIO 11.0\VC\INCLUDE\XKEYCHECK.H
C:\PROGRAM FILES (X86)\MICROSOFT VISUAL STUDIO 11.0\VC\INCLUDE\USE_ANSI.H
C:\PROGRAM FILES (X86)\MICROSOFT VISUAL STUDIO 11.0\VC\INCLUDE\CMATH
C:\PROGRAM FILES (X86)\MICROSOFT VISUAL STUDIO 11.0\VC\INCLUDE\MATH.H
C:\PROGRAM FILES (X86)\MICROSOFT VISUAL STUDIO 11.0\VC\INCLUDE\XTGMATH.H
C:\PROGRAM FILES (X86)\MICROSOFT VISUAL STUDIO 11.0\VC\INCLUDE\XTR1COMMON
C:\PROGRAM FILES (X86)\MICROSOFT VISUAL STUDIO 11.0\VC\INCLUDE\CSTDIO
C:\PROGRAM FILES (X86)\MICROSOFT VISUAL STUDIO 11.0\VC\INCLUDE\CSTDLIB
C:\PROGRAM FILES (X86)\MICROSOFT VISUAL STUDIO 11.0\VC\INCLUDE\STREAMBUF
C:\PROGRAM FILES (X86)\MICROSOFT VISUAL STUDIO 11.0\VC\INCLUDE\XIOSBASE
C:\PROGRAM FILES (X86)\MICROSOFT VISUAL STUDIO 11.0\VC\INCLUDE\XLOCALE
C:\PROGRAM FILES (X86)\MICROSOFT VISUAL STUDIO 11.0\VC\INCLUDE\CSTRING
C:\PROGRAM FILES (X86)\MICROSOFT VISUAL STUDIO 11.0\VC\INCLUDE\STDEXCEPT
C:\PROGRAM FILES (X86)\MICROSOFT VISUAL STUDIO 11.0\VC\INCLUDE\EXCEPTION
C:\PROGRAM FILES (X86)\MICROSOFT VISUAL STUDIO 11.0\VC\INCLUDE\XSTDDEF
C:\PROGRAM FILES (X86)\MICROSOFT VISUAL STUDIO 11.0\VC\INCLUDE\CSTDDEF
C:\PROGRAM FILES (X86)\MICROSOFT VISUAL STUDIO 11.0\VC\INCLUDE\STDDEF.H
C:\PROGRAM FILES (X86)\MICROSOFT VISUAL STUDIO 11.0\VC\INCLUDE\EH.H
C:\PROGRAM FILES (X86)\MICROSOFT VISUAL STUDIO 11.0\VC\INCLUDE\MALLOC.H
C:\PROGRAM FILES (X86)\MICROSOFT VISUAL STUDIO 11.0\VC\INCLUDE\XSTRING
C:\PROGRAM FILES (X86)\MICROSOFT VISUAL STUDIO 11.0\VC\INCLUDE\XMEMORY0
C:\PROGRAM FILES (X86)\MICROSOFT VISUAL STUDIO 11.0\VC\INCLUDE\LIMITS
C:\PROGRAM FILES (X86)\MICROSOFT VISUAL STUDIO 11.0\VC\INCLUDE\YMATH.H
C:\PROGRAM FILES (X86)\MICROSOFT VISUAL STUDIO 11.0\VC\INCLUDE\CFLOAT
C:\PROGRAM FILES (X86)\MICROSOFT VISUAL STUDIO 11.0\VC\INCLUDE\FLOAT.H
C:\PROGRAM FILES (X86)\MICROSOFT VISUAL STUDIO 11.0\VC\INCLUDE\CRTWRN.H
C:\PROGRAM FILES (X86)\MICROSOFT VISUAL STUDIO 11.0\VC\INCLUDE\CWCHAR
C:\PROGRAM FILES (X86)\MICROSOFT VISUAL STUDIO 11.0\VC\INCLUDE\WCHAR.H
C:\PROGRAM FILES (X86)\MICROSOFT VISUAL STUDIO 11.0\VC\INCLUDE\NEW
C:\PROGRAM FILES (X86)\MICROSOFT VISUAL STUDIO 11.0\VC\INCLUDE\XUTILITY
C:\PROGRAM FILES (X86)\MICROSOFT VISUAL STUDIO 11.0\VC\INCLUDE\UTILITY
C:\PROGRAM FILES (X86)\MICROSOFT VISUAL STUDIO 11.0\VC\INCLUDE\IOSFWD
C:\PROGRAM FILES (X86)\MICROSOFT VISUAL STUDIO 11.0\VC\INCLUDE\CRTDBG.H
C:\PROGRAM FILES (X86)\MICROSOFT VISUAL STUDIO 11.0\VC\INCLUDE\TYPE_TRAITS
C:\PROGRAM FILES (X86)\MICROSOFT VISUAL STUDIO 11.0\VC\INCLUDE\XREFWRAP
C:\PROGRAM FILES (X86)\MICROSOFT VISUAL STUDIO 11.0\VC\INCLUDE\XATOMIC0.H
C:\PROGRAM FILES (X86)\MICROSOFT VISUAL STUDIO 11.0\VC\INCLUDE\INTRIN.H
C:\PROGRAM FILES (X86)\MICROSOFT VISUAL STUDIO 11.0\VC\INCLUDE\SETJMP.H
C:\PROGRAM FILES (X86)\MICROSOFT VISUAL STUDIO 11.0\VC\INCLUDE\IMMINTRIN.H
C:\PROGRAM FILES (X86)\MICROSOFT VISUAL STUDIO 11.0\VC\INCLUDE\WMMINTRIN.H
C:\PROGRAM FILES (X86)\MICROSOFT VISUAL STUDIO 11.0\VC\INCLUDE\NMMINTRIN.H
C:\PROGRAM FILES (X86)\MICROSOFT VISUAL STUDIO 11.0\VC\INCLUDE\SMMINTRIN.H
C:\PROGRAM FILES (X86)\MICROSOFT VISUAL STUDIO 11.0\VC\INCLUDE\TMMINTRIN.H
C:\PROGRAM FILES (X86)\MICROSOFT VISUAL STUDIO 11.0\VC\INCLUDE\PMMINTRIN.H
C:\PROGRAM FILES (X86)\MICROSOFT VISUAL STUDIO 11.0\VC\INCLUDE\EMMINTRIN.H
C:\PROGRAM FILES (X86)\MICROSOFT VISUAL STUDIO 11.0\VC\INCLUDE\XMMINTRIN.H
C:\PROGRAM FILES (X86)\MICROSOFT VISUAL STUDIO 11.0\VC\INCLUDE\MMINTRIN.H
C:\PROGRAM FILES (X86)\MICROSOFT VISUAL STUDIO 11.0\VC\INCLUDE\AMMINTRIN.H
C:\PROGRAM FILES (X86)\MICROSOFT VISUAL STUDIO 11.0\VC\INCLUDE\MM3DNOW.H
C:\PROGRAM FILES (X86)\MICROSOFT VISUAL STUDIO 11.0\VC\INCLUDE\TYPEINFO
C:\PROGRAM FILES (X86)\MICROSOFT VISUAL STUDIO 11.0\VC\INCLUDE\XLOCINFO
C:\PROGRAM FILES (X86)\MICROSOFT VISUAL STUDIO 11.0\VC\INCLUDE\XLOCINFO.H
C:\PROGRAM FILES (X86)\MICROSOFT VISUAL STUDIO 11.0\VC\INCLUDE\LOCALE.H
C:\PROGRAM FILES (X86)\MICROSOFT VISUAL STUDIO 11.0\VC\INCLUDE\XDEBUG
C:\PROGRAM FILES (X86)\MICROSOFT VISUAL STUDIO 11.0\VC\INCLUDE\XMEMORY
C:\PROGRAM FILES (X86)\MICROSOFT VISUAL STUDIO 11.0\VC\INCLUDE\XFACET
C:\PROGRAM FILES (X86)\MICROSOFT VISUAL STUDIO 11.0\VC\INCLUDE\SYSTEM_ERROR
C:\PROGRAM FILES (X86)\MICROSOFT VISUAL STUDIO 11.0\VC\INCLUDE\CERRNO
C:\PROGRAM FILES (X86)\MICROSOFT VISUAL STUDIO 11.0\VC\INCLUDE\ERRNO.H
C:\PROGRAM FILES (X86)\MICROSOFT VISUAL STUDIO 11.0\VC\INCLUDE\SHARE.H
C:\PROGRAM FILES (X86)\MICROSOFT VISUAL STUDIO 11.0\VC\INCLUDE\IOSTREAM
C:\PROGRAM FILES (X86)\MICROSOFT VISUAL STUDIO 11.0\VC\INCLUDE\VECTOR
C:\USERS\KUKU\DOCUMENTS\VISUAL STUDIO 2012\PROJECTS\BOOST_1_54_0\BOOST\REGEX.HPP
C:\USERS\KUKU\DOCUMENTS\VISUAL STUDIO 2012\PROJECTS\BOOST_1_54_0\BOOST\REGEX\CONFIG.HPP
C:\USERS\KUKU\DOCUMENTS\VISUAL STUDIO 2012\PROJECTS\BOOST_1_54_0\BOOST\REGEX\USER.HPP
C:\USERS\KUKU\DOCUMENTS\VISUAL STUDIO 2012\PROJECTS\BOOST_1_54_0\BOOST\CONFIG.HPP
C:\USERS\KUKU\DOCUMENTS\VISUAL STUDIO 2012\PROJECTS\BOOST_1_54_0\BOOST\CONFIG\USER.HPP
C:\USERS\KUKU\DOCUMENTS\VISUAL STUDIO 2012\PROJECTS\BOOST_1_54_0\BOOST\CONFIG\SELECT_COMPILER_CONFIG.HPP
C:\USERS\KUKU\DOCUMENTS\VISUAL STUDIO 2012\PROJECTS\BOOST_1_54_0\BOOST\CONFIG\COMPILER\VISUALC.HPP
C:\USERS\KUKU\DOCUMENTS\VISUAL STUDIO 2012\PROJECTS\BOOST_1_54_0\BOOST\CONFIG\SELECT_STDLIB_CONFIG.HPP
C:\USERS\KUKU\DOCUMENTS\VISUAL STUDIO 2012\PROJECTS\BOOST_1_54_0\BOOST\CONFIG\NO_TR1\UTILITY.HPP
C:\USERS\KUKU\DOCUMENTS\VISUAL STUDIO 2012\PROJECTS\BOOST_1_54_0\BOOST\CONFIG\STDLIB\DINKUMWARE.HPP
C:\USERS\KUKU\DOCUMENTS\VISUAL STUDIO 2012\PROJECTS\BOOST_1_54_0\BOOST\CONFIG\SELECT_PLATFORM_CONFIG.HPP
C:\USERS\KUKU\DOCUMENTS\VISUAL STUDIO 2012\PROJECTS\BOOST_1_54_0\BOOST\CONFIG\PLATFORM\WIN32.HPP
C:\USERS\KUKU\DOCUMENTS\VISUAL STUDIO 2012\PROJECTS\BOOST_1_54_0\BOOST\CONFIG\SUFFIX.HPP
C:\USERS\KUKU\DOCUMENTS\VISUAL STUDIO 2012\PROJECTS\BOOST_1_54_0\BOOST\REGEX\CONFIG\CWCHAR.HPP
C:\PROGRAM FILES (X86)\MICROSOFT VISUAL STUDIO 11.0\VC\INCLUDE\CWCTYPE
C:\PROGRAM FILES (X86)\MICROSOFT VISUAL STUDIO 11.0\VC\INCLUDE\WCTYPE.H
C:\USERS\KUKU\DOCUMENTS\VISUAL STUDIO 2012\PROJECTS\BOOST_1_54_0\BOOST\CONFIG\AUTO_LINK.HPP
C:\USERS\KUKU\DOCUMENTS\VISUAL STUDIO 2012\PROJECTS\BOOST_1_54_0\BOOST\VERSION.HPP
C:\USERS\KUKU\DOCUMENTS\VISUAL STUDIO 2012\PROJECTS\BOOST_1_54_0\BOOST\REGEX\V4\REGEX.HPP
C:\USERS\KUKU\DOCUMENTS\VISUAL STUDIO 2012\PROJECTS\BOOST_1_54_0\BOOST\REGEX\V4\REGEX_WORKAROUND.HPP
C:\PROGRAM FILES (X86)\MICROSOFT VISUAL STUDIO 11.0\VC\INCLUDE\CASSERT
C:\PROGRAM FILES (X86)\MICROSOFT VISUAL STUDIO 11.0\VC\INCLUDE\ASSERT.H
C:\PROGRAM FILES (X86)\MICROSOFT VISUAL STUDIO 11.0\VC\INCLUDE\ALGORITHM
C:\PROGRAM FILES (X86)\MICROSOFT VISUAL STUDIO 11.0\VC\INCLUDE\MAP
C:\PROGRAM FILES (X86)\MICROSOFT VISUAL STUDIO 11.0\VC\INCLUDE\XTREE
C:\USERS\KUKU\DOCUMENTS\VISUAL STUDIO 2012\PROJECTS\BOOST_1_54_0\BOOST\LIMITS.HPP
C:\USERS\KUKU\DOCUMENTS\VISUAL STUDIO 2012\PROJECTS\BOOST_1_54_0\BOOST\ASSERT.HPP
C:\USERS\KUKU\DOCUMENTS\VISUAL STUDIO 2012\PROJECTS\BOOST_1_54_0\BOOST\CURRENT_FUNCTION.HPP
C:\USERS\KUKU\DOCUMENTS\VISUAL STUDIO 2012\PROJECTS\BOOST_1_54_0\BOOST\CSTDINT.HPP
C:\PROGRAM FILES (X86)\MICROSOFT VISUAL STUDIO 11.0\VC\INCLUDE\STDINT.H
C:\USERS\KUKU\DOCUMENTS\VISUAL STUDIO 2012\PROJECTS\BOOST_1_54_0\BOOST\THROW_EXCEPTION.HPP
C:\USERS\KUKU\DOCUMENTS\VISUAL STUDIO 2012\PROJECTS\BOOST_1_54_0\BOOST\EXCEPTION\DETAIL\ATTRIBUTE_NORETURN.HPP
C:\USERS\KUKU\DOCUMENTS\VISUAL STUDIO 2012\PROJECTS\BOOST_1_54_0\BOOST\DETAIL\WORKAROUND.HPP
C:\USERS\KUKU\DOCUMENTS\VISUAL STUDIO 2012\PROJECTS\BOOST_1_54_0\BOOST\EXCEPTION\EXCEPTION.HPP
C:\USERS\KUKU\DOCUMENTS\VISUAL STUDIO 2012\PROJECTS\BOOST_1_54_0\BOOST\SCOPED_PTR.HPP
C:\USERS\KUKU\DOCUMENTS\VISUAL STUDIO 2012\PROJECTS\BOOST_1_54_0\BOOST\SMART_PTR\SCOPED_PTR.HPP
C:\USERS\KUKU\DOCUMENTS\VISUAL STUDIO 2012\PROJECTS\BOOST_1_54_0\BOOST\CHECKED_DELETE.HPP
C:\USERS\KUKU\DOCUMENTS\VISUAL STUDIO 2012\PROJECTS\BOOST_1_54_0\BOOST\SMART_PTR\DETAIL\SP_NULLPTR_T.HPP
C:\PROGRAM FILES (X86)\MICROSOFT VISUAL STUDIO 11.0\VC\INCLUDE\MEMORY
C:\USERS\KUKU\DOCUMENTS\VISUAL STUDIO 2012\PROJECTS\BOOST_1_54_0\BOOST\SMART_PTR\DETAIL\OPERATOR_BOOL.HPP
C:\USERS\KUKU\DOCUMENTS\VISUAL STUDIO 2012\PROJECTS\BOOST_1_54_0\BOOST\SCOPED_ARRAY.HPP
C:\USERS\KUKU\DOCUMENTS\VISUAL STUDIO 2012\PROJECTS\BOOST_1_54_0\BOOST\SMART_PTR\SCOPED_ARRAY.HPP
C:\USERS\KUKU\DOCUMENTS\VISUAL STUDIO 2012\PROJECTS\BOOST_1_54_0\BOOST\SHARED_PTR.HPP
C:\USERS\KUKU\DOCUMENTS\VISUAL STUDIO 2012\PROJECTS\BOOST_1_54_0\BOOST\SMART_PTR\SHARED_PTR.HPP
C:\USERS\KUKU\DOCUMENTS\VISUAL STUDIO 2012\PROJECTS\BOOST_1_54_0\BOOST\CONFIG\NO_TR1\MEMORY.HPP
C:\USERS\KUKU\DOCUMENTS\VISUAL STUDIO 2012\PROJECTS\BOOST_1_54_0\BOOST\SMART_PTR\DETAIL\SHARED_COUNT.HPP
C:\USERS\KUKU\DOCUMENTS\VISUAL STUDIO 2012\PROJECTS\BOOST_1_54_0\BOOST\SMART_PTR\BAD_WEAK_PTR.HPP
C:\USERS\KUKU\DOCUMENTS\VISUAL STUDIO 2012\PROJECTS\BOOST_1_54_0\BOOST\SMART_PTR\DETAIL\SP_COUNTED_BASE.HPP
C:\USERS\KUKU\DOCUMENTS\VISUAL STUDIO 2012\PROJECTS\BOOST_1_54_0\BOOST\SMART_PTR\DETAIL\SP_HAS_SYNC.HPP
C:\USERS\KUKU\DOCUMENTS\VISUAL STUDIO 2012\PROJECTS\BOOST_1_54_0\BOOST\SMART_PTR\DETAIL\SP_COUNTED_BASE_W32.HPP
C:\USERS\KUKU\DOCUMENTS\VISUAL STUDIO 2012\PROJECTS\BOOST_1_54_0\BOOST\DETAIL\INTERLOCKED.HPP
C:\USERS\KUKU\DOCUMENTS\VISUAL STUDIO 2012\PROJECTS\BOOST_1_54_0\BOOST\DETAIL\SP_TYPEINFO.HPP
C:\USERS\KUKU\DOCUMENTS\VISUAL STUDIO 2012\PROJECTS\BOOST_1_54_0\BOOST\SMART_PTR\DETAIL\SP_COUNTED_IMPL.HPP
C:\PROGRAM FILES (X86)\MICROSOFT VISUAL STUDIO 11.0\VC\INCLUDE\FUNCTIONAL
C:\PROGRAM FILES (X86)\MICROSOFT VISUAL STUDIO 11.0\VC\INCLUDE\XFUNCTIONAL
C:\PROGRAM FILES (X86)\MICROSOFT VISUAL STUDIO 11.0\VC\INCLUDE\TUPLE
C:\USERS\KUKU\DOCUMENTS\VISUAL STUDIO 2012\PROJECTS\BOOST_1_54_0\BOOST\UTILITY\ADDRESSOF.HPP
C:\USERS\KUKU\DOCUMENTS\VISUAL STUDIO 2012\PROJECTS\BOOST_1_54_0\BOOST\SMART_PTR\DETAIL\SP_CONVERTIBLE.HPP
C:\USERS\KUKU\DOCUMENTS\VISUAL STUDIO 2012\PROJECTS\BOOST_1_54_0\BOOST\SMART_PTR\DETAIL\SPINLOCK_POOL.HPP
C:\USERS\KUKU\DOCUMENTS\VISUAL STUDIO 2012\PROJECTS\BOOST_1_54_0\BOOST\SMART_PTR\DETAIL\SPINLOCK.HPP
C:\USERS\KUKU\DOCUMENTS\VISUAL STUDIO 2012\PROJECTS\BOOST_1_54_0\BOOST\SMART_PTR\DETAIL\SPINLOCK_W32.HPP
C:\USERS\KUKU\DOCUMENTS\VISUAL STUDIO 2012\PROJECTS\BOOST_1_54_0\BOOST\SMART_PTR\DETAIL\YIELD_K.HPP
C:\USERS\KUKU\DOCUMENTS\VISUAL STUDIO 2012\PROJECTS\BOOST_1_54_0\BOOST\MEMORY_ORDER.HPP
C:\USERS\KUKU\DOCUMENTS\VISUAL STUDIO 2012\PROJECTS\BOOST_1_54_0\BOOST\MPL\BOOL_FWD.HPP
C:\USERS\KUKU\DOCUMENTS\VISUAL STUDIO 2012\PROJECTS\BOOST_1_54_0\BOOST\MPL\AUX_\ADL_BARRIER.HPP
C:\USERS\KUKU\DOCUMENTS\VISUAL STUDIO 2012\PROJECTS\BOOST_1_54_0\BOOST\MPL\AUX_\CONFIG\ADL.HPP
C:\USERS\KUKU\DOCUMENTS\VISUAL STUDIO 2012\PROJECTS\BOOST_1_54_0\BOOST\MPL\AUX_\CONFIG\MSVC.HPP
C:\USERS\KUKU\DOCUMENTS\VISUAL STUDIO 2012\PROJECTS\BOOST_1_54_0\BOOST\MPL\AUX_\CONFIG\INTEL.HPP
C:\USERS\KUKU\DOCUMENTS\VISUAL STUDIO 2012\PROJECTS\BOOST_1_54_0\BOOST\MPL\AUX_\CONFIG\GCC.HPP
C:\USERS\KUKU\DOCUMENTS\VISUAL STUDIO 2012\PROJECTS\BOOST_1_54_0\BOOST\MPL\AUX_\CONFIG\WORKAROUND.HPP
C:\PROGRAM FILES (X86)\MICROSOFT VISUAL STUDIO 11.0\VC\INCLUDE\LOCALE
C:\PROGRAM FILES (X86)\MICROSOFT VISUAL STUDIO 11.0\VC\INCLUDE\XLOCBUF
C:\PROGRAM FILES (X86)\MICROSOFT VISUAL STUDIO 11.0\VC\INCLUDE\XLOCMES
C:\PROGRAM FILES (X86)\MICROSOFT VISUAL STUDIO 11.0\VC\INCLUDE\XLOCMON
C:\PROGRAM FILES (X86)\MICROSOFT VISUAL STUDIO 11.0\VC\INCLUDE\XLOCTIME
C:\PROGRAM FILES (X86)\MICROSOFT VISUAL STUDIO 11.0\VC\INCLUDE\CTIME
C:\USERS\KUKU\DOCUMENTS\VISUAL STUDIO 2012\PROJECTS\BOOST_1_54_0\BOOST\REGEX_FWD.HPP
C:\USERS\KUKU\DOCUMENTS\VISUAL STUDIO 2012\PROJECTS\BOOST_1_54_0\BOOST\REGEX\V4\REGEX_FWD.HPP
C:\USERS\KUKU\DOCUMENTS\VISUAL STUDIO 2012\PROJECTS\BOOST_1_54_0\BOOST\REGEX\REGEX_TRAITS.HPP
C:\USERS\KUKU\DOCUMENTS\VISUAL STUDIO 2012\PROJECTS\BOOST_1_54_0\BOOST\REGEX\V4\REGEX_TRAITS.HPP
C:\USERS\KUKU\DOCUMENTS\VISUAL STUDIO 2012\PROJECTS\BOOST_1_54_0\BOOST\REGEX\V4\SYNTAX_TYPE.HPP
C:\USERS\KUKU\DOCUMENTS\VISUAL STUDIO 2012\PROJECTS\BOOST_1_54_0\BOOST\REGEX\V4\ERROR_TYPE.HPP
C:\USERS\KUKU\DOCUMENTS\VISUAL STUDIO 2012\PROJECTS\BOOST_1_54_0\BOOST\REGEX\V4\REGEX_TRAITS_DEFAULTS.HPP
C:\USERS\KUKU\DOCUMENTS\VISUAL STUDIO 2012\PROJECTS\BOOST_1_54_0\BOOST\CONFIG\ABI\MSVC_PREFIX.HPP
C:\USERS\KUKU\DOCUMENTS\VISUAL STUDIO 2012\PROJECTS\BOOST_1_54_0\BOOST\CONFIG\ABI\MSVC_SUFFIX.HPP
C:\USERS\KUKU\DOCUMENTS\VISUAL STUDIO 2012\PROJECTS\BOOST_1_54_0\BOOST\REGEX\V4\CPP_REGEX_TRAITS.HPP
C:\USERS\KUKU\DOCUMENTS\VISUAL STUDIO 2012\PROJECTS\BOOST_1_54_0\BOOST\INTEGER.HPP
C:\USERS\KUKU\DOCUMENTS\VISUAL STUDIO 2012\PROJECTS\BOOST_1_54_0\BOOST\INTEGER_FWD.HPP
C:\USERS\KUKU\DOCUMENTS\VISUAL STUDIO 2012\PROJECTS\BOOST_1_54_0\BOOST\INTEGER_TRAITS.HPP
C:\USERS\KUKU\DOCUMENTS\VISUAL STUDIO 2012\PROJECTS\BOOST_1_54_0\BOOST\STATIC_ASSERT.HPP
C:\USERS\KUKU\DOCUMENTS\VISUAL STUDIO 2012\PROJECTS\BOOST_1_54_0\BOOST\REGEX\PATTERN_EXCEPT.HPP
C:\USERS\KUKU\DOCUMENTS\VISUAL STUDIO 2012\PROJECTS\BOOST_1_54_0\BOOST\REGEX\PENDING\STATIC_MUTEX.HPP
C:\USERS\KUKU\DOCUMENTS\VISUAL STUDIO 2012\PROJECTS\BOOST_1_54_0\BOOST\REGEX\V4\PRIMARY_TRANSFORM.HPP
C:\USERS\KUKU\DOCUMENTS\VISUAL STUDIO 2012\PROJECTS\BOOST_1_54_0\BOOST\REGEX\PENDING\OBJECT_CACHE.HPP
C:\PROGRAM FILES (X86)\MICROSOFT VISUAL STUDIO 11.0\VC\INCLUDE\LIST
C:\USERS\KUKU\DOCUMENTS\VISUAL STUDIO 2012\PROJECTS\BOOST_1_54_0\BOOST\REGEX\V4\C_REGEX_TRAITS.HPP
C:\PROGRAM FILES (X86)\MICROSOFT VISUAL STUDIO 11.0\VC\INCLUDE\CCTYPE
C:\USERS\KUKU\DOCUMENTS\VISUAL STUDIO 2012\PROJECTS\BOOST_1_54_0\BOOST\REGEX\V4\W32_REGEX_TRAITS.HPP
C:\USERS\KUKU\DOCUMENTS\VISUAL STUDIO 2012\PROJECTS\BOOST_1_54_0\BOOST\MPL\HAS_XXX.HPP
C:\USERS\KUKU\DOCUMENTS\VISUAL STUDIO 2012\PROJECTS\BOOST_1_54_0\BOOST\MPL\BOOL.HPP
C:\USERS\KUKU\DOCUMENTS\VISUAL STUDIO 2012\PROJECTS\BOOST_1_54_0\BOOST\MPL\INTEGRAL_C_TAG.HPP
C:\USERS\KUKU\DOCUMENTS\VISUAL STUDIO 2012\PROJECTS\BOOST_1_54_0\BOOST\MPL\AUX_\CONFIG\STATIC_CONSTANT.HPP
C:\USERS\KUKU\DOCUMENTS\VISUAL STUDIO 2012\PROJECTS\BOOST_1_54_0\BOOST\MPL\AUX_\NA_SPEC.HPP
C:\USERS\KUKU\DOCUMENTS\VISUAL STUDIO 2012\PROJECTS\BOOST_1_54_0\BOOST\MPL\LAMBDA_FWD.HPP
C:\USERS\KUKU\DOCUMENTS\VISUAL STUDIO 2012\PROJECTS\BOOST_1_54_0\BOOST\MPL\VOID_FWD.HPP
C:\USERS\KUKU\DOCUMENTS\VISUAL STUDIO 2012\PROJECTS\BOOST_1_54_0\BOOST\MPL\AUX_\NA.HPP
C:\USERS\KUKU\DOCUMENTS\VISUAL STUDIO 2012\PROJECTS\BOOST_1_54_0\BOOST\MPL\AUX_\NA_FWD.HPP
C:\USERS\KUKU\DOCUMENTS\VISUAL STUDIO 2012\PROJECTS\BOOST_1_54_0\BOOST\MPL\AUX_\CONFIG\CTPS.HPP
C:\USERS\KUKU\DOCUMENTS\VISUAL STUDIO 2012\PROJECTS\BOOST_1_54_0\BOOST\MPL\AUX_\CONFIG\LAMBDA.HPP
C:\USERS\KUKU\DOCUMENTS\VISUAL STUDIO 2012\PROJECTS\BOOST_1_54_0\BOOST\MPL\AUX_\CONFIG\TTP.HPP
C:\USERS\KUKU\DOCUMENTS\VISUAL STUDIO 2012\PROJECTS\BOOST_1_54_0\BOOST\MPL\INT.HPP
C:\USERS\KUKU\DOCUMENTS\VISUAL STUDIO 2012\PROJECTS\BOOST_1_54_0\BOOST\MPL\INT_FWD.HPP
C:\USERS\KUKU\DOCUMENTS\VISUAL STUDIO 2012\PROJECTS\BOOST_1_54_0\BOOST\MPL\AUX_\NTTP_DECL.HPP
C:\USERS\KUKU\DOCUMENTS\VISUAL STUDIO 2012\PROJECTS\BOOST_1_54_0\BOOST\MPL\AUX_\CONFIG\NTTP.HPP
C:\USERS\KUKU\DOCUMENTS\VISUAL STUDIO 2012\PROJECTS\BOOST_1_54_0\BOOST\MPL\AUX_\INTEGRAL_WRAPPER.HPP
C:\USERS\KUKU\DOCUMENTS\VISUAL STUDIO 2012\PROJECTS\BOOST_1_54_0\BOOST\MPL\AUX_\STATIC_CAST.HPP
C:\USERS\KUKU\DOCUMENTS\VISUAL STUDIO 2012\PROJECTS\BOOST_1_54_0\BOOST\PREPROCESSOR\CAT.HPP
C:\USERS\KUKU\DOCUMENTS\VISUAL STUDIO 2012\PROJECTS\BOOST_1_54_0\BOOST\PREPROCESSOR\CONFIG\CONFIG.HPP
C:\USERS\KUKU\DOCUMENTS\VISUAL STUDIO 2012\PROJECTS\BOOST_1_54_0\BOOST\MPL\AUX_\LAMBDA_ARITY_PARAM.HPP
C:\USERS\KUKU\DOCUMENTS\VISUAL STUDIO 2012\PROJECTS\BOOST_1_54_0\BOOST\MPL\AUX_\TEMPLATE_ARITY_FWD.HPP
C:\USERS\KUKU\DOCUMENTS\VISUAL STUDIO 2012\PROJECTS\BOOST_1_54_0\BOOST\MPL\AUX_\ARITY.HPP
C:\USERS\KUKU\DOCUMENTS\VISUAL STUDIO 2012\PROJECTS\BOOST_1_54_0\BOOST\MPL\AUX_\CONFIG\DTP.HPP
C:\USERS\KUKU\DOCUMENTS\VISUAL STUDIO 2012\PROJECTS\BOOST_1_54_0\BOOST\MPL\AUX_\PREPROCESSOR\PARAMS.HPP
C:\USERS\KUKU\DOCUMENTS\VISUAL STUDIO 2012\PROJECTS\BOOST_1_54_0\BOOST\MPL\AUX_\CONFIG\PREPROCESSOR.HPP
C:\USERS\KUKU\DOCUMENTS\VISUAL STUDIO 2012\PROJECTS\BOOST_1_54_0\BOOST\PREPROCESSOR\COMMA_IF.HPP
C:\USERS\KUKU\DOCUMENTS\VISUAL STUDIO 2012\PROJECTS\BOOST_1_54_0\BOOST\PREPROCESSOR\PUNCTUATION\COMMA_IF.HPP
C:\USERS\KUKU\DOCUMENTS\VISUAL STUDIO 2012\PROJECTS\BOOST_1_54_0\BOOST\PREPROCESSOR\CONTROL\IF.HPP
C:\USERS\KUKU\DOCUMENTS\VISUAL STUDIO 2012\PROJECTS\BOOST_1_54_0\BOOST\PREPROCESSOR\CONTROL\IIF.HPP
C:\USERS\KUKU\DOCUMENTS\VISUAL STUDIO 2012\PROJECTS\BOOST_1_54_0\BOOST\PREPROCESSOR\LOGICAL\BOOL.HPP
C:\USERS\KUKU\DOCUMENTS\VISUAL STUDIO 2012\PROJECTS\BOOST_1_54_0\BOOST\PREPROCESSOR\FACILITIES\EMPTY.HPP
C:\USERS\KUKU\DOCUMENTS\VISUAL STUDIO 2012\PROJECTS\BOOST_1_54_0\BOOST\PREPROCESSOR\PUNCTUATION\COMMA.HPP
C:\USERS\KUKU\DOCUMENTS\VISUAL STUDIO 2012\PROJECTS\BOOST_1_54_0\BOOST\PREPROCESSOR\REPEAT.HPP
C:\USERS\KUKU\DOCUMENTS\VISUAL STUDIO 2012\PROJECTS\BOOST_1_54_0\BOOST\PREPROCESSOR\REPETITION\REPEAT.HPP
C:\USERS\KUKU\DOCUMENTS\VISUAL STUDIO 2012\PROJECTS\BOOST_1_54_0\BOOST\PREPROCESSOR\DEBUG\ERROR.HPP
C:\USERS\KUKU\DOCUMENTS\VISUAL STUDIO 2012\PROJECTS\BOOST_1_54_0\BOOST\PREPROCESSOR\DETAIL\AUTO_REC.HPP
C:\USERS\KUKU\DOCUMENTS\VISUAL STUDIO 2012\PROJECTS\BOOST_1_54_0\BOOST\PREPROCESSOR\TUPLE\EAT.HPP
C:\USERS\KUKU\DOCUMENTS\VISUAL STUDIO 2012\PROJECTS\BOOST_1_54_0\BOOST\PREPROCESSOR\INC.HPP
C:\USERS\KUKU\DOCUMENTS\VISUAL STUDIO 2012\PROJECTS\BOOST_1_54_0\BOOST\PREPROCESSOR\ARITHMETIC\INC.HPP
C:\USERS\KUKU\DOCUMENTS\VISUAL STUDIO 2012\PROJECTS\BOOST_1_54_0\BOOST\MPL\AUX_\PREPROCESSOR\ENUM.HPP
C:\USERS\KUKU\DOCUMENTS\VISUAL STUDIO 2012\PROJECTS\BOOST_1_54_0\BOOST\MPL\AUX_\PREPROCESSOR\DEF_PARAMS_TAIL.HPP
C:\USERS\KUKU\DOCUMENTS\VISUAL STUDIO 2012\PROJECTS\BOOST_1_54_0\BOOST\MPL\LIMITS\ARITY.HPP
C:\USERS\KUKU\DOCUMENTS\VISUAL STUDIO 2012\PROJECTS\BOOST_1_54_0\BOOST\PREPROCESSOR\LOGICAL\AND.HPP
C:\USERS\KUKU\DOCUMENTS\VISUAL STUDIO 2012\PROJECTS\BOOST_1_54_0\BOOST\PREPROCESSOR\LOGICAL\BITAND.HPP
C:\USERS\KUKU\DOCUMENTS\VISUAL STUDIO 2012\PROJECTS\BOOST_1_54_0\BOOST\PREPROCESSOR\IDENTITY.HPP
C:\USERS\KUKU\DOCUMENTS\VISUAL STUDIO 2012\PROJECTS\BOOST_1_54_0\BOOST\PREPROCESSOR\FACILITIES\IDENTITY.HPP
C:\USERS\KUKU\DOCUMENTS\VISUAL STUDIO 2012\PROJECTS\BOOST_1_54_0\BOOST\PREPROCESSOR\EMPTY.HPP
C:\USERS\KUKU\DOCUMENTS\VISUAL STUDIO 2012\PROJECTS\BOOST_1_54_0\BOOST\PREPROCESSOR\ARITHMETIC\ADD.HPP
C:\USERS\KUKU\DOCUMENTS\VISUAL STUDIO 2012\PROJECTS\BOOST_1_54_0\BOOST\PREPROCESSOR\ARITHMETIC\DEC.HPP
C:\USERS\KUKU\DOCUMENTS\VISUAL STUDIO 2012\PROJECTS\BOOST_1_54_0\BOOST\PREPROCESSOR\CONTROL\WHILE.HPP
C:\USERS\KUKU\DOCUMENTS\VISUAL STUDIO 2012\PROJECTS\BOOST_1_54_0\BOOST\PREPROCESSOR\LIST\FOLD_LEFT.HPP
C:\USERS\KUKU\DOCUMENTS\VISUAL STUDIO 2012\PROJECTS\BOOST_1_54_0\BOOST\PREPROCESSOR\LIST\DETAIL\FOLD_LEFT.HPP
C:\USERS\KUKU\DOCUMENTS\VISUAL STUDIO 2012\PROJECTS\BOOST_1_54_0\BOOST\PREPROCESSOR\CONTROL\EXPR_IIF.HPP
C:\USERS\KUKU\DOCUMENTS\VISUAL STUDIO 2012\PROJECTS\BOOST_1_54_0\BOOST\PREPROCESSOR\LIST\ADT.HPP
C:\USERS\KUKU\DOCUMENTS\VISUAL STUDIO 2012\PROJECTS\BOOST_1_54_0\BOOST\PREPROCESSOR\DETAIL\IS_BINARY.HPP
C:\USERS\KUKU\DOCUMENTS\VISUAL STUDIO 2012\PROJECTS\BOOST_1_54_0\BOOST\PREPROCESSOR\DETAIL\CHECK.HPP
C:\USERS\KUKU\DOCUMENTS\VISUAL STUDIO 2012\PROJECTS\BOOST_1_54_0\BOOST\PREPROCESSOR\LOGICAL\COMPL.HPP
C:\USERS\KUKU\DOCUMENTS\VISUAL STUDIO 2012\PROJECTS\BOOST_1_54_0\BOOST\PREPROCESSOR\LIST\FOLD_RIGHT.HPP
C:\USERS\KUKU\DOCUMENTS\VISUAL STUDIO 2012\PROJECTS\BOOST_1_54_0\BOOST\PREPROCESSOR\LIST\DETAIL\FOLD_RIGHT.HPP
C:\USERS\KUKU\DOCUMENTS\VISUAL STUDIO 2012\PROJECTS\BOOST_1_54_0\BOOST\PREPROCESSOR\LIST\REVERSE.HPP
C:\USERS\KUKU\DOCUMENTS\VISUAL STUDIO 2012\PROJECTS\BOOST_1_54_0\BOOST\PREPROCESSOR\CONTROL\DETAIL\MSVC\WHILE.HPP
C:\USERS\KUKU\DOCUMENTS\VISUAL STUDIO 2012\PROJECTS\BOOST_1_54_0\BOOST\PREPROCESSOR\TUPLE\ELEM.HPP
C:\USERS\KUKU\DOCUMENTS\VISUAL STUDIO 2012\PROJECTS\BOOST_1_54_0\BOOST\PREPROCESSOR\FACILITIES\OVERLOAD.HPP
C:\USERS\KUKU\DOCUMENTS\VISUAL STUDIO 2012\PROJECTS\BOOST_1_54_0\BOOST\PREPROCESSOR\VARIADIC\SIZE.HPP
C:\USERS\KUKU\DOCUMENTS\VISUAL STUDIO 2012\PROJECTS\BOOST_1_54_0\BOOST\PREPROCESSOR\TUPLE\REM.HPP
C:\USERS\KUKU\DOCUMENTS\VISUAL STUDIO 2012\PROJECTS\BOOST_1_54_0\BOOST\PREPROCESSOR\VARIADIC\ELEM.HPP
C:\USERS\KUKU\DOCUMENTS\VISUAL STUDIO 2012\PROJECTS\BOOST_1_54_0\BOOST\PREPROCESSOR\ARITHMETIC\SUB.HPP
C:\USERS\KUKU\DOCUMENTS\VISUAL STUDIO 2012\PROJECTS\BOOST_1_54_0\BOOST\MPL\AUX_\CONFIG\ETI.HPP
C:\USERS\KUKU\DOCUMENTS\VISUAL STUDIO 2012\PROJECTS\BOOST_1_54_0\BOOST\MPL\AUX_\CONFIG\OVERLOAD_RESOLUTION.HPP
C:\USERS\KUKU\DOCUMENTS\VISUAL STUDIO 2012\PROJECTS\BOOST_1_54_0\BOOST\MPL\AUX_\TYPE_WRAPPER.HPP
C:\USERS\KUKU\DOCUMENTS\VISUAL STUDIO 2012\PROJECTS\BOOST_1_54_0\BOOST\MPL\AUX_\YES_NO.HPP
C:\USERS\KUKU\DOCUMENTS\VISUAL STUDIO 2012\PROJECTS\BOOST_1_54_0\BOOST\MPL\AUX_\CONFIG\ARRAYS.HPP
C:\USERS\KUKU\DOCUMENTS\VISUAL STUDIO 2012\PROJECTS\BOOST_1_54_0\BOOST\MPL\AUX_\CONFIG\HAS_XXX.HPP
C:\USERS\KUKU\DOCUMENTS\VISUAL STUDIO 2012\PROJECTS\BOOST_1_54_0\BOOST\MPL\AUX_\CONFIG\MSVC_TYPENAME.HPP
C:\USERS\KUKU\DOCUMENTS\VISUAL STUDIO 2012\PROJECTS\BOOST_1_54_0\BOOST\PREPROCESSOR\ARRAY\ELEM.HPP
C:\USERS\KUKU\DOCUMENTS\VISUAL STUDIO 2012\PROJECTS\BOOST_1_54_0\BOOST\PREPROCESSOR\ARRAY\DATA.HPP
C:\USERS\KUKU\DOCUMENTS\VISUAL STUDIO 2012\PROJECTS\BOOST_1_54_0\BOOST\PREPROCESSOR\ARRAY\SIZE.HPP
C:\USERS\KUKU\DOCUMENTS\VISUAL STUDIO 2012\PROJECTS\BOOST_1_54_0\BOOST\PREPROCESSOR\REPETITION\ENUM_PARAMS.HPP
C:\USERS\KUKU\DOCUMENTS\VISUAL STUDIO 2012\PROJECTS\BOOST_1_54_0\BOOST\PREPROCESSOR\REPETITION\ENUM_TRAILING_PARAMS.HPP
C:\USERS\KUKU\DOCUMENTS\VISUAL STUDIO 2012\PROJECTS\BOOST_1_54_0\BOOST\REGEX\V4\MATCH_FLAGS.HPP
C:\USERS\KUKU\DOCUMENTS\VISUAL STUDIO 2012\PROJECTS\BOOST_1_54_0\BOOST\REGEX\V4\REGEX_RAW_BUFFER.HPP
C:\USERS\KUKU\DOCUMENTS\VISUAL STUDIO 2012\PROJECTS\BOOST_1_54_0\BOOST\REGEX\V4\CHAR_REGEX_TRAITS.HPP
C:\USERS\KUKU\DOCUMENTS\VISUAL STUDIO 2012\PROJECTS\BOOST_1_54_0\BOOST\REGEX\V4\STATES.HPP
C:\USERS\KUKU\DOCUMENTS\VISUAL STUDIO 2012\PROJECTS\BOOST_1_54_0\BOOST\REGEX\V4\REGBASE.HPP
C:\USERS\KUKU\DOCUMENTS\VISUAL STUDIO 2012\PROJECTS\BOOST_1_54_0\BOOST\REGEX\V4\ITERATOR_TRAITS.HPP
C:\USERS\KUKU\DOCUMENTS\VISUAL STUDIO 2012\PROJECTS\BOOST_1_54_0\BOOST\REGEX\V4\BASIC_REGEX.HPP
C:\USERS\KUKU\DOCUMENTS\VISUAL STUDIO 2012\PROJECTS\BOOST_1_54_0\BOOST\TYPE_TRAITS\IS_SAME.HPP
C:\USERS\KUKU\DOCUMENTS\VISUAL STUDIO 2012\PROJECTS\BOOST_1_54_0\BOOST\TYPE_TRAITS\CONFIG.HPP
C:\USERS\KUKU\DOCUMENTS\VISUAL STUDIO 2012\PROJECTS\BOOST_1_54_0\BOOST\TYPE_TRAITS\DETAIL\BOOL_TRAIT_DEF.HPP
C:\USERS\KUKU\DOCUMENTS\VISUAL STUDIO 2012\PROJECTS\BOOST_1_54_0\BOOST\TYPE_TRAITS\DETAIL\TEMPLATE_ARITY_SPEC.HPP
C:\USERS\KUKU\DOCUMENTS\VISUAL STUDIO 2012\PROJECTS\BOOST_1_54_0\BOOST\TYPE_TRAITS\INTEGRAL_CONSTANT.HPP
C:\USERS\KUKU\DOCUMENTS\VISUAL STUDIO 2012\PROJECTS\BOOST_1_54_0\BOOST\MPL\INTEGRAL_C.HPP
C:\USERS\KUKU\DOCUMENTS\VISUAL STUDIO 2012\PROJECTS\BOOST_1_54_0\BOOST\MPL\INTEGRAL_C_FWD.HPP
C:\USERS\KUKU\DOCUMENTS\VISUAL STUDIO 2012\PROJECTS\BOOST_1_54_0\BOOST\MPL\AUX_\LAMBDA_SUPPORT.HPP
C:\USERS\KUKU\DOCUMENTS\VISUAL STUDIO 2012\PROJECTS\BOOST_1_54_0\BOOST\TYPE_TRAITS\DETAIL\BOOL_TRAIT_UNDEF.HPP
C:\USERS\KUKU\DOCUMENTS\VISUAL STUDIO 2012\PROJECTS\BOOST_1_54_0\BOOST\FUNCTIONAL\HASH.HPP
C:\USERS\KUKU\DOCUMENTS\VISUAL STUDIO 2012\PROJECTS\BOOST_1_54_0\BOOST\FUNCTIONAL\HASH\HASH.HPP
C:\USERS\KUKU\DOCUMENTS\VISUAL STUDIO 2012\PROJECTS\BOOST_1_54_0\BOOST\FUNCTIONAL\HASH\HASH_FWD.HPP
C:\USERS\KUKU\DOCUMENTS\VISUAL STUDIO 2012\PROJECTS\BOOST_1_54_0\BOOST\FUNCTIONAL\HASH\DETAIL\HASH_FLOAT.HPP
C:\USERS\KUKU\DOCUMENTS\VISUAL STUDIO 2012\PROJECTS\BOOST_1_54_0\BOOST\FUNCTIONAL\HASH\DETAIL\FLOAT_FUNCTIONS.HPP
C:\USERS\KUKU\DOCUMENTS\VISUAL STUDIO 2012\PROJECTS\BOOST_1_54_0\BOOST\CONFIG\NO_TR1\CMATH.HPP
C:\USERS\KUKU\DOCUMENTS\VISUAL STUDIO 2012\PROJECTS\BOOST_1_54_0\BOOST\FUNCTIONAL\HASH\DETAIL\LIMITS.HPP
C:\USERS\KUKU\DOCUMENTS\VISUAL STUDIO 2012\PROJECTS\BOOST_1_54_0\BOOST\UTILITY\ENABLE_IF.HPP
C:\USERS\KUKU\DOCUMENTS\VISUAL STUDIO 2012\PROJECTS\BOOST_1_54_0\BOOST\INTEGER\STATIC_LOG2.HPP
C:\USERS\KUKU\DOCUMENTS\VISUAL STUDIO 2012\PROJECTS\BOOST_1_54_0\BOOST\TYPE_TRAITS\IS_ENUM.HPP
C:\USERS\KUKU\DOCUMENTS\VISUAL STUDIO 2012\PROJECTS\BOOST_1_54_0\BOOST\TYPE_TRAITS\INTRINSICS.HPP
C:\USERS\KUKU\DOCUMENTS\VISUAL STUDIO 2012\PROJECTS\BOOST_1_54_0\BOOST\TYPE_TRAITS\IS_FUNCTION.HPP
C:\USERS\KUKU\DOCUMENTS\VISUAL STUDIO 2012\PROJECTS\BOOST_1_54_0\BOOST\TYPE_TRAITS\IS_REFERENCE.HPP
C:\USERS\KUKU\DOCUMENTS\VISUAL STUDIO 2012\PROJECTS\BOOST_1_54_0\BOOST\TYPE_TRAITS\IS_LVALUE_REFERENCE.HPP
C:\USERS\KUKU\DOCUMENTS\VISUAL STUDIO 2012\PROJECTS\BOOST_1_54_0\BOOST\TYPE_TRAITS\IS_RVALUE_REFERENCE.HPP
C:\USERS\KUKU\DOCUMENTS\VISUAL STUDIO 2012\PROJECTS\BOOST_1_54_0\BOOST\TYPE_TRAITS\ICE.HPP
C:\USERS\KUKU\DOCUMENTS\VISUAL STUDIO 2012\PROJECTS\BOOST_1_54_0\BOOST\TYPE_TRAITS\DETAIL\YES_NO_TYPE.HPP
C:\USERS\KUKU\DOCUMENTS\VISUAL STUDIO 2012\PROJECTS\BOOST_1_54_0\BOOST\TYPE_TRAITS\DETAIL\ICE_OR.HPP
C:\USERS\KUKU\DOCUMENTS\VISUAL STUDIO 2012\PROJECTS\BOOST_1_54_0\BOOST\TYPE_TRAITS\DETAIL\ICE_AND.HPP
C:\USERS\KUKU\DOCUMENTS\VISUAL STUDIO 2012\PROJECTS\BOOST_1_54_0\BOOST\TYPE_TRAITS\DETAIL\ICE_NOT.HPP
C:\USERS\KUKU\DOCUMENTS\VISUAL STUDIO 2012\PROJECTS\BOOST_1_54_0\BOOST\TYPE_TRAITS\DETAIL\ICE_EQ.HPP
C:\USERS\KUKU\DOCUMENTS\VISUAL STUDIO 2012\PROJECTS\BOOST_1_54_0\BOOST\TYPE_TRAITS\DETAIL\FALSE_RESULT.HPP
C:\USERS\KUKU\DOCUMENTS\VISUAL STUDIO 2012\PROJECTS\BOOST_1_54_0\BOOST\TYPE_TRAITS\DETAIL\IS_FUNCTION_PTR_TESTER.HPP
C:\USERS\KUKU\DOCUMENTS\VISUAL STUDIO 2012\PROJECTS\BOOST_1_54_0\BOOST\TYPE_TRAITS\IS_INTEGRAL.HPP
C:\PROGRAM FILES (X86)\MICROSOFT VISUAL STUDIO 11.0\VC\INCLUDE\TYPEINDEX
C:\USERS\KUKU\DOCUMENTS\VISUAL STUDIO 2012\PROJECTS\BOOST_1_54_0\BOOST\FUNCTIONAL\HASH\EXTENSIONS.HPP
C:\USERS\KUKU\DOCUMENTS\VISUAL STUDIO 2012\PROJECTS\BOOST_1_54_0\BOOST\DETAIL\CONTAINER_FWD.HPP
C:\USERS\KUKU\DOCUMENTS\VISUAL STUDIO 2012\PROJECTS\BOOST_1_54_0\BOOST\PREPROCESSOR\REPETITION\REPEAT_FROM_TO.HPP
C:\PROGRAM FILES (X86)\MICROSOFT VISUAL STUDIO 11.0\VC\INCLUDE\ARRAY
C:\USERS\KUKU\DOCUMENTS\VISUAL STUDIO 2012\PROJECTS\BOOST_1_54_0\BOOST\REGEX\V4\BASIC_REGEX_CREATOR.HPP
C:\USERS\KUKU\DOCUMENTS\VISUAL STUDIO 2012\PROJECTS\BOOST_1_54_0\BOOST\REGEX\V4\BASIC_REGEX_PARSER.HPP
C:\USERS\KUKU\DOCUMENTS\VISUAL STUDIO 2012\PROJECTS\BOOST_1_54_0\BOOST\REGEX\V4\SUB_MATCH.HPP
C:\USERS\KUKU\DOCUMENTS\VISUAL STUDIO 2012\PROJECTS\BOOST_1_54_0\BOOST\REGEX\V4\REGEX_FORMAT.HPP
C:\USERS\KUKU\DOCUMENTS\VISUAL STUDIO 2012\PROJECTS\BOOST_1_54_0\BOOST\TYPE_TRAITS\IS_POINTER.HPP
C:\USERS\KUKU\DOCUMENTS\VISUAL STUDIO 2012\PROJECTS\BOOST_1_54_0\BOOST\TYPE_TRAITS\IS_MEMBER_POINTER.HPP
C:\USERS\KUKU\DOCUMENTS\VISUAL STUDIO 2012\PROJECTS\BOOST_1_54_0\BOOST\TYPE_TRAITS\IS_MEMBER_FUNCTION_POINTER.HPP
C:\USERS\KUKU\DOCUMENTS\VISUAL STUDIO 2012\PROJECTS\BOOST_1_54_0\BOOST\TYPE_TRAITS\IS_ARRAY.HPP
C:\USERS\KUKU\DOCUMENTS\VISUAL STUDIO 2012\PROJECTS\BOOST_1_54_0\BOOST\TYPE_TRAITS\DETAIL\IS_MEM_FUN_POINTER_TESTER.HPP
C:\USERS\KUKU\DOCUMENTS\VISUAL STUDIO 2012\PROJECTS\BOOST_1_54_0\BOOST\TYPE_TRAITS\REMOVE_CV.HPP
C:\USERS\KUKU\DOCUMENTS\VISUAL STUDIO 2012\PROJECTS\BOOST_1_54_0\BOOST\TYPE_TRAITS\BROKEN_COMPILER_SPEC.HPP
C:\USERS\KUKU\DOCUMENTS\VISUAL STUDIO 2012\PROJECTS\BOOST_1_54_0\BOOST\TYPE_TRAITS\DETAIL\CV_TRAITS_IMPL.HPP
C:\USERS\KUKU\DOCUMENTS\VISUAL STUDIO 2012\PROJECTS\BOOST_1_54_0\BOOST\TYPE_TRAITS\DETAIL\TYPE_TRAIT_DEF.HPP
C:\USERS\KUKU\DOCUMENTS\VISUAL STUDIO 2012\PROJECTS\BOOST_1_54_0\BOOST\TYPE_TRAITS\DETAIL\TYPE_TRAIT_UNDEF.HPP
C:\USERS\KUKU\DOCUMENTS\VISUAL STUDIO 2012\PROJECTS\BOOST_1_54_0\BOOST\TYPE_TRAITS\IS_CLASS.HPP
C:\USERS\KUKU\DOCUMENTS\VISUAL STUDIO 2012\PROJECTS\BOOST_1_54_0\BOOST\TYPE_TRAITS\IS_CONVERTIBLE.HPP
C:\USERS\KUKU\DOCUMENTS\VISUAL STUDIO 2012\PROJECTS\BOOST_1_54_0\BOOST\TYPE_TRAITS\REMOVE_POINTER.HPP
C:\USERS\KUKU\DOCUMENTS\VISUAL STUDIO 2012\PROJECTS\BOOST_1_54_0\BOOST\MPL\IF.HPP
C:\USERS\KUKU\DOCUMENTS\VISUAL STUDIO 2012\PROJECTS\BOOST_1_54_0\BOOST\MPL\AUX_\VALUE_WKND.HPP
C:\USERS\KUKU\DOCUMENTS\VISUAL STUDIO 2012\PROJECTS\BOOST_1_54_0\BOOST\MPL\AUX_\CONFIG\INTEGRAL.HPP
C:\USERS\KUKU\DOCUMENTS\VISUAL STUDIO 2012\PROJECTS\BOOST_1_54_0\BOOST\MPL\AND.HPP
C:\USERS\KUKU\DOCUMENTS\VISUAL STUDIO 2012\PROJECTS\BOOST_1_54_0\BOOST\MPL\AUX_\CONFIG\USE_PREPROCESSED.HPP
C:\USERS\KUKU\DOCUMENTS\VISUAL STUDIO 2012\PROJECTS\BOOST_1_54_0\BOOST\MPL\AUX_\NESTED_TYPE_WKND.HPP
C:\USERS\KUKU\DOCUMENTS\VISUAL STUDIO 2012\PROJECTS\BOOST_1_54_0\BOOST\MPL\AUX_\INCLUDE_PREPROCESSED.HPP
C:\USERS\KUKU\DOCUMENTS\VISUAL STUDIO 2012\PROJECTS\BOOST_1_54_0\BOOST\MPL\AUX_\CONFIG\COMPILER.HPP
C:\USERS\KUKU\DOCUMENTS\VISUAL STUDIO 2012\PROJECTS\BOOST_1_54_0\BOOST\PREPROCESSOR\STRINGIZE.HPP
C:\USERS\KUKU\DOCUMENTS\VISUAL STUDIO 2012\PROJECTS\BOOST_1_54_0\BOOST\MPL\AUX_\PREPROCESSED\PLAIN\AND.HPP
C:\USERS\KUKU\DOCUMENTS\VISUAL STUDIO 2012\PROJECTS\BOOST_1_54_0\BOOST\MPL\NOT.HPP
C:\USERS\KUKU\DOCUMENTS\VISUAL STUDIO 2012\PROJECTS\BOOST_1_54_0\BOOST\REF.HPP
C:\USERS\KUKU\DOCUMENTS\VISUAL STUDIO 2012\PROJECTS\BOOST_1_54_0\BOOST\REGEX\V4\MATCH_RESULTS.HPP
C:\USERS\KUKU\DOCUMENTS\VISUAL STUDIO 2012\PROJECTS\BOOST_1_54_0\BOOST\REGEX\V4\PROTECTED_CALL.HPP
C:\USERS\KUKU\DOCUMENTS\VISUAL STUDIO 2012\PROJECTS\BOOST_1_54_0\BOOST\REGEX\V4\PERL_MATCHER.HPP
C:\USERS\KUKU\DOCUMENTS\VISUAL STUDIO 2012\PROJECTS\BOOST_1_54_0\BOOST\REGEX\V4\ITERATOR_CATEGORY.HPP
C:\USERS\KUKU\DOCUMENTS\VISUAL STUDIO 2012\PROJECTS\BOOST_1_54_0\BOOST\REGEX\V4\PERL_MATCHER_NON_RECURSIVE.HPP
C:\USERS\KUKU\DOCUMENTS\VISUAL STUDIO 2012\PROJECTS\BOOST_1_54_0\BOOST\REGEX\V4\PERL_MATCHER_COMMON.HPP
C:\USERS\KUKU\DOCUMENTS\VISUAL STUDIO 2012\PROJECTS\BOOST_1_54_0\BOOST\REGEX\V4\INSTANCES.HPP
C:\USERS\KUKU\DOCUMENTS\VISUAL STUDIO 2012\PROJECTS\BOOST_1_54_0\BOOST\REGEX\V4\REGEX_MATCH.HPP
C:\USERS\KUKU\DOCUMENTS\VISUAL STUDIO 2012\PROJECTS\BOOST_1_54_0\BOOST\REGEX\V4\REGEX_SEARCH.HPP
C:\USERS\KUKU\DOCUMENTS\VISUAL STUDIO 2012\PROJECTS\BOOST_1_54_0\BOOST\REGEX\V4\REGEX_ITERATOR.HPP
C:\USERS\KUKU\DOCUMENTS\VISUAL STUDIO 2012\PROJECTS\BOOST_1_54_0\BOOST\REGEX\V4\REGEX_TOKEN_ITERATOR.HPP
C:\USERS\KUKU\DOCUMENTS\VISUAL STUDIO 2012\PROJECTS\BOOST_1_54_0\BOOST\REGEX\V4\REGEX_GREP.HPP
C:\USERS\KUKU\DOCUMENTS\VISUAL STUDIO 2012\PROJECTS\BOOST_1_54_0\BOOST\REGEX\V4\REGEX_REPLACE.HPP
C:\USERS\KUKU\DOCUMENTS\VISUAL STUDIO 2012\PROJECTS\BOOST_1_54_0\BOOST\REGEX\V4\REGEX_MERGE.HPP
C:\USERS\KUKU\DOCUMENTS\VISUAL STUDIO 2012\PROJECTS\BOOST_1_54_0\BOOST\REGEX\V4\REGEX_SPLIT.HPP
C:\PROGRAM FILES (X86)\MICROSOFT VISUAL STUDIO 11.0\VC\INCLUDE\FSTREAM
C:\PROGRAM FILES (X86)\MICROSOFT SDKS\WINDOWS\V7.1A\INCLUDE\WINSOCK2.H
C:\PROGRAM FILES (X86)\MICROSOFT SDKS\WINDOWS\V7.1A\INCLUDE\WINDOWS.H
C:\PROGRAM FILES (X86)\MICROSOFT SDKS\WINDOWS\V7.1A\INCLUDE\SDKDDKVER.H
C:\PROGRAM FILES (X86)\MICROSOFT SDKS\WINDOWS\V7.1A\INCLUDE\WINDEF.H
C:\PROGRAM FILES (X86)\MICROSOFT SDKS\WINDOWS\V7.1A\INCLUDE\WINNT.H
C:\PROGRAM FILES (X86)\MICROSOFT SDKS\WINDOWS\V7.1A\INCLUDE\SPECSTRINGS.H
C:\PROGRAM FILES (X86)\MICROSOFT SDKS\WINDOWS\V7.1A\INCLUDE\SAL_SUPP.H
C:\PROGRAM FILES (X86)\MICROSOFT SDKS\WINDOWS\V7.1A\INCLUDE\SPECSTRINGS_SUPP.H
C:\PROGRAM FILES (X86)\MICROSOFT SDKS\WINDOWS\V7.1A\INCLUDE\SPECSTRINGS_STRICT.H
C:\PROGRAM FILES (X86)\MICROSOFT SDKS\WINDOWS\V7.1A\INCLUDE\SPECSTRINGS_UNDEF.H
C:\PROGRAM FILES (X86)\MICROSOFT SDKS\WINDOWS\V7.1A\INCLUDE\DRIVERSPECS.H
C:\PROGRAM FILES (X86)\MICROSOFT SDKS\WINDOWS\V7.1A\INCLUDE\SDV_DRIVERSPECS.H
C:\PROGRAM FILES (X86)\MICROSOFT SDKS\WINDOWS\V7.1A\INCLUDE\KERNELSPECS.H
C:\PROGRAM FILES (X86)\MICROSOFT SDKS\WINDOWS\V7.1A\INCLUDE\BASETSD.H
C:\PROGRAM FILES (X86)\MICROSOFT SDKS\WINDOWS\V7.1A\INCLUDE\GUIDDEF.H
C:\PROGRAM FILES (X86)\MICROSOFT SDKS\WINDOWS\V7.1A\INCLUDE\PSHPACK4.H
C:\PROGRAM FILES (X86)\MICROSOFT SDKS\WINDOWS\V7.1A\INCLUDE\POPPACK.H
C:\PROGRAM FILES (X86)\MICROSOFT SDKS\WINDOWS\V7.1A\INCLUDE\PSHPACK2.H
C:\PROGRAM FILES (X86)\MICROSOFT SDKS\WINDOWS\V7.1A\INCLUDE\PSHPACK8.H
C:\PROGRAM FILES (X86)\MICROSOFT SDKS\WINDOWS\V7.1A\INCLUDE\KTMTYPES.H
C:\PROGRAM FILES (X86)\MICROSOFT SDKS\WINDOWS\V7.1A\INCLUDE\WINBASE.H
C:\PROGRAM FILES (X86)\MICROSOFT SDKS\WINDOWS\V7.1A\INCLUDE\WINERROR.H
C:\PROGRAM FILES (X86)\MICROSOFT SDKS\WINDOWS\V7.1A\INCLUDE\WINGDI.H
C:\PROGRAM FILES (X86)\MICROSOFT SDKS\WINDOWS\V7.1A\INCLUDE\PSHPACK1.H
C:\PROGRAM FILES (X86)\MICROSOFT SDKS\WINDOWS\V7.1A\INCLUDE\WINUSER.H
C:\PROGRAM FILES (X86)\MICROSOFT SDKS\WINDOWS\V7.1A\INCLUDE\TVOUT.H
C:\PROGRAM FILES (X86)\MICROSOFT SDKS\WINDOWS\V7.1A\INCLUDE\WINNLS.H
C:\PROGRAM FILES (X86)\MICROSOFT SDKS\WINDOWS\V7.1A\INCLUDE\WINCON.H
C:\PROGRAM FILES (X86)\MICROSOFT SDKS\WINDOWS\V7.1A\INCLUDE\WINVER.H
C:\PROGRAM FILES (X86)\MICROSOFT SDKS\WINDOWS\V7.1A\INCLUDE\VERRSRC.H
C:\PROGRAM FILES (X86)\MICROSOFT SDKS\WINDOWS\V7.1A\INCLUDE\WINREG.H
C:\PROGRAM FILES (X86)\MICROSOFT SDKS\WINDOWS\V7.1A\INCLUDE\REASON.H
C:\PROGRAM FILES (X86)\MICROSOFT SDKS\WINDOWS\V7.1A\INCLUDE\WINNETWK.H
C:\PROGRAM FILES (X86)\MICROSOFT SDKS\WINDOWS\V7.1A\INCLUDE\WNNC.H
C:\PROGRAM FILES (X86)\MICROSOFT SDKS\WINDOWS\V7.1A\INCLUDE\CDERR.H
C:\PROGRAM FILES (X86)\MICROSOFT SDKS\WINDOWS\V7.1A\INCLUDE\DDE.H
C:\PROGRAM FILES (X86)\MICROSOFT SDKS\WINDOWS\V7.1A\INCLUDE\DDEML.H
C:\PROGRAM FILES (X86)\MICROSOFT SDKS\WINDOWS\V7.1A\INCLUDE\DLGS.H
C:\PROGRAM FILES (X86)\MICROSOFT SDKS\WINDOWS\V7.1A\INCLUDE\LZEXPAND.H
C:\PROGRAM FILES (X86)\MICROSOFT SDKS\WINDOWS\V7.1A\INCLUDE\MMSYSTEM.H
C:\PROGRAM FILES (X86)\MICROSOFT SDKS\WINDOWS\V7.1A\INCLUDE\NB30.H
C:\PROGRAM FILES (X86)\MICROSOFT SDKS\WINDOWS\V7.1A\INCLUDE\RPC.H
C:\PROGRAM FILES (X86)\MICROSOFT SDKS\WINDOWS\V7.1A\INCLUDE\RPCDCE.H
C:\PROGRAM FILES (X86)\MICROSOFT SDKS\WINDOWS\V7.1A\INCLUDE\RPCDCEP.H
C:\PROGRAM FILES (X86)\MICROSOFT SDKS\WINDOWS\V7.1A\INCLUDE\RPCNSI.H
C:\PROGRAM FILES (X86)\MICROSOFT SDKS\WINDOWS\V7.1A\INCLUDE\RPCNTERR.H
C:\PROGRAM FILES (X86)\MICROSOFT SDKS\WINDOWS\V7.1A\INCLUDE\RPCASYNC.H
C:\PROGRAM FILES (X86)\MICROSOFT SDKS\WINDOWS\V7.1A\INCLUDE\SHELLAPI.H
C:\PROGRAM FILES (X86)\MICROSOFT SDKS\WINDOWS\V7.1A\INCLUDE\WINPERF.H
C:\PROGRAM FILES (X86)\MICROSOFT SDKS\WINDOWS\V7.1A\INCLUDE\WINSOCK.H
C:\PROGRAM FILES (X86)\MICROSOFT SDKS\WINDOWS\V7.1A\INCLUDE\WINCRYPT.H
C:\PROGRAM FILES (X86)\MICROSOFT SDKS\WINDOWS\V7.1A\INCLUDE\BCRYPT.H
C:\PROGRAM FILES (X86)\MICROSOFT SDKS\WINDOWS\V7.1A\INCLUDE\NCRYPT.H
C:\PROGRAM FILES (X86)\MICROSOFT SDKS\WINDOWS\V7.1A\INCLUDE\WINEFS.H
C:\PROGRAM FILES (X86)\MICROSOFT SDKS\WINDOWS\V7.1A\INCLUDE\WINSCARD.H
C:\PROGRAM FILES (X86)\MICROSOFT SDKS\WINDOWS\V7.1A\INCLUDE\WTYPES.H
C:\PROGRAM FILES (X86)\MICROSOFT SDKS\WINDOWS\V7.1A\INCLUDE\RPCNDR.H
C:\PROGRAM FILES (X86)\MICROSOFT SDKS\WINDOWS\V7.1A\INCLUDE\RPCNSIP.H
C:\PROGRAM FILES (X86)\MICROSOFT SDKS\WINDOWS\V7.1A\INCLUDE\RPCSAL.H
C:\PROGRAM FILES (X86)\MICROSOFT SDKS\WINDOWS\V7.1A\INCLUDE\WINIOCTL.H
C:\PROGRAM FILES (X86)\MICROSOFT SDKS\WINDOWS\V7.1A\INCLUDE\WINSMCRD.H
C:\PROGRAM FILES (X86)\MICROSOFT SDKS\WINDOWS\V7.1A\INCLUDE\WINSPOOL.H
C:\PROGRAM FILES (X86)\MICROSOFT SDKS\WINDOWS\V7.1A\INCLUDE\PRSHT.H
C:\PROGRAM FILES (X86)\MICROSOFT SDKS\WINDOWS\V7.1A\INCLUDE\OLE2.H
C:\PROGRAM FILES (X86)\MICROSOFT SDKS\WINDOWS\V7.1A\INCLUDE\OBJBASE.H
C:\PROGRAM FILES (X86)\MICROSOFT SDKS\WINDOWS\V7.1A\INCLUDE\UNKNWN.H
C:\PROGRAM FILES (X86)\MICROSOFT SDKS\WINDOWS\V7.1A\INCLUDE\OBJIDL.H
C:\PROGRAM FILES (X86)\MICROSOFT SDKS\WINDOWS\V7.1A\INCLUDE\CGUID.H
C:\PROGRAM FILES (X86)\MICROSOFT SDKS\WINDOWS\V7.1A\INCLUDE\URLMON.H
C:\PROGRAM FILES (X86)\MICROSOFT SDKS\WINDOWS\V7.1A\INCLUDE\OLEIDL.H
C:\PROGRAM FILES (X86)\MICROSOFT SDKS\WINDOWS\V7.1A\INCLUDE\SERVPROV.H
C:\PROGRAM FILES (X86)\MICROSOFT SDKS\WINDOWS\V7.1A\INCLUDE\MSXML.H
C:\PROGRAM FILES (X86)\MICROSOFT SDKS\WINDOWS\V7.1A\INCLUDE\OAIDL.H
C:\PROGRAM FILES (X86)\MICROSOFT SDKS\WINDOWS\V7.1A\INCLUDE\PROPIDL.H
C:\PROGRAM FILES (X86)\MICROSOFT SDKS\WINDOWS\V7.1A\INCLUDE\OLEAUTO.H
C:\PROGRAM FILES (X86)\MICROSOFT SDKS\WINDOWS\V7.1A\INCLUDE\COMMDLG.H
C:\PROGRAM FILES (X86)\MICROSOFT SDKS\WINDOWS\V7.1A\INCLUDE\STRALIGN.H
C:\PROGRAM FILES (X86)\MICROSOFT SDKS\WINDOWS\V7.1A\INCLUDE\WINSVC.H
C:\PROGRAM FILES (X86)\MICROSOFT SDKS\WINDOWS\V7.1A\INCLUDE\MCX.H
C:\PROGRAM FILES (X86)\MICROSOFT SDKS\WINDOWS\V7.1A\INCLUDE\IMM.H
C:\PROGRAM FILES (X86)\MICROSOFT SDKS\WINDOWS\V7.1A\INCLUDE\IME_CMODES.H
C:\PROGRAM FILES (X86)\MICROSOFT SDKS\WINDOWS\V7.1A\INCLUDE\WS2DEF.H
C:\PROGRAM FILES (X86)\MICROSOFT SDKS\WINDOWS\V7.1A\INCLUDE\INADDR.H
C:\PROGRAM FILES (X86)\MICROSOFT SDKS\WINDOWS\V7.1A\INCLUDE\QOS.H
C:\PROGRAM FILES (X86)\MICROSOFT SDKS\WINDOWS\V7.1A\INCLUDE\WS2TCPIP.H
C:\PROGRAM FILES (X86)\MICROSOFT SDKS\WINDOWS\V7.1A\INCLUDE\WS2IPDEF.H
C:\PROGRAM FILES (X86)\MICROSOFT SDKS\WINDOWS\V7.1A\INCLUDE\IN6ADDR.H
D:\LIBCURL\INCLUDE\CURL\CURL.H
D:\LIBCURL\INCLUDE\CURL\CURLVER.H
D:\LIBCURL\INCLUDE\CURL\CURLBUILD.H
D:\LIBCURL\INCLUDE\CURL\CURLRULES.H
D:\LIBCURL\INCLUDE\CURL\EASY.H
D:\LIBCURL\INCLUDE\CURL\MULTI.H
