^C:\USERS\KUKU\DOCUMENTS\VISUAL STUDIO 2010\PROJECTS\PROXY_FUNCTION\PROXYFUNCTION_GOOGLES\PROXYFUNCTION_GOOGLES\PROXYFUNCTION_GOOGLES.CPP
C:\USERS\KUKU\DOCUMENTS\VISUAL STUDIO 2010\PROJECTS\PROXY_FUNCTION\PROXYFUNCTION_GOOGLES\PROXYFUNCTION_GOOGLES\DEBUG\PROXYFUNCTION_GOOGLES.OBJ
C:\USERS\KUKU\DOCUMENTS\VISUAL STUDIO 2010\PROJECTS\PROXY_FUNCTION\PROXYFUNCTION_GOOGLES\PROXYFUNCTION_GOOGLES\DEBUG\VC110.PDB
